%!PS-Adobe-2.0 EPSF-2.0
%%Title: /home/tarun/research/xpacc/moya/docs/thenew.dia
%%Creator: Dia v0.97.3
%%CreationDate: Fri Jun 19 00:02:30 2015
%%For: tarun
%%Orientation: Portrait
%%Magnification: 1.0000
%%BoundingBox: 0 0 798 565
%%BeginSetup
%%EndSetup
%%EndComments
%%BeginProlog
[ /.notdef /.notdef /.notdef /.notdef /.notdef /.notdef /.notdef /.notdef /.notdef /.notdef
/.notdef /.notdef /.notdef /.notdef /.notdef /.notdef /.notdef /.notdef /.notdef /.notdef
/.notdef /.notdef /.notdef /.notdef /.notdef /.notdef /.notdef /.notdef /.notdef /.notdef
/.notdef /.notdef /space /exclam /quotedbl /numbersign /dollar /percent /ampersand /quoteright
/parenleft /parenright /asterisk /plus /comma /hyphen /period /slash /zero /one
/two /three /four /five /six /seven /eight /nine /colon /semicolon
/less /equal /greater /question /at /A /B /C /D /E
/F /G /H /I /J /K /L /M /N /O
/P /Q /R /S /T /U /V /W /X /Y
/Z /bracketleft /backslash /bracketright /asciicircum /underscore /quoteleft /a /b /c
/d /e /f /g /h /i /j /k /l /m
/n /o /p /q /r /s /t /u /v /w
/x /y /z /braceleft /bar /braceright /asciitilde /.notdef /.notdef /.notdef
/.notdef /.notdef /.notdef /.notdef /.notdef /.notdef /.notdef /.notdef /.notdef /.notdef
/.notdef /.notdef /.notdef /.notdef /.notdef /.notdef /.notdef /.notdef /.notdef /.notdef
/.notdef /.notdef /.notdef /.notdef /.notdef /.notdef /.notdef /.notdef /.notdef /.notdef
/space /exclamdown /cent /sterling /currency /yen /brokenbar /section /dieresis /copyright
/ordfeminine /guillemotleft /logicalnot /hyphen /registered /macron /degree /plusminus /twosuperior /threesuperior
/acute /mu /paragraph /periodcentered /cedilla /onesuperior /ordmasculine /guillemotright /onequarter /onehalf
/threequarters /questiondown /Agrave /Aacute /Acircumflex /Atilde /Adieresis /Aring /AE /Ccedilla
/Egrave /Eacute /Ecircumflex /Edieresis /Igrave /Iacute /Icircumflex /Idieresis /Eth /Ntilde
/Ograve /Oacute /Ocircumflex /Otilde /Odieresis /multiply /Oslash /Ugrave /Uacute /Ucircumflex
/Udieresis /Yacute /Thorn /germandbls /agrave /aacute /acircumflex /atilde /adieresis /aring
/ae /ccedilla /egrave /eacute /ecircumflex /edieresis /igrave /iacute /icircumflex /idieresis
/eth /ntilde /ograve /oacute /ocircumflex /otilde /odieresis /divide /oslash /ugrave
/uacute /ucircumflex /udieresis /yacute /thorn /ydieresis] /isolatin1encoding exch def
/cp {closepath} bind def
/c {curveto} bind def
/f {fill} bind def
/a {arc} bind def
/ef {eofill} bind def
/ex {exch} bind def
/gr {grestore} bind def
/gs {gsave} bind def
/sa {save} bind def
/rs {restore} bind def
/l {lineto} bind def
/m {moveto} bind def
/rm {rmoveto} bind def
/n {newpath} bind def
/s {stroke} bind def
/sh {show} bind def
/slc {setlinecap} bind def
/slj {setlinejoin} bind def
/slw {setlinewidth} bind def
/srgb {setrgbcolor} bind def
/rot {rotate} bind def
/sc {scale} bind def
/sd {setdash} bind def
/ff {findfont} bind def
/sf {setfont} bind def
/scf {scalefont} bind def
/sw {stringwidth pop} bind def
/tr {translate} bind def

/ellipsedict 8 dict def
ellipsedict /mtrx matrix put
/ellipse
{ ellipsedict begin
   /endangle exch def
   /startangle exch def
   /yrad exch def
   /xrad exch def
   /y exch def
   /x exch def   /savematrix mtrx currentmatrix def
   x y tr xrad yrad sc
   0 0 1 startangle endangle arc
   savematrix setmatrix
   end
} def

/mergeprocs {
dup length
3 -1 roll
dup
length
dup
5 1 roll
3 -1 roll
add
array cvx
dup
3 -1 roll
0 exch
putinterval
dup
4 2 roll
putinterval
} bind def
/dpi_x 300 def
/dpi_y 300 def
/conicto {
    /to_y exch def
    /to_x exch def
    /conic_cntrl_y exch def
    /conic_cntrl_x exch def
    currentpoint
    /p0_y exch def
    /p0_x exch def
    /p1_x p0_x conic_cntrl_x p0_x sub 2 3 div mul add def
    /p1_y p0_y conic_cntrl_y p0_y sub 2 3 div mul add def
    /p2_x p1_x to_x p0_x sub 1 3 div mul add def
    /p2_y p1_y to_y p0_y sub 1 3 div mul add def
    p1_x p1_y p2_x p2_y to_x to_y curveto
} bind def
/start_ol { gsave 1.1 dpi_x div dup scale} bind def
/end_ol { closepath fill grestore } bind def
28.346000 -28.346000 scale
-1.580000 -23.050000 translate
%%EndProlog


0.847059 0.898039 0.898039 srgb
n 4.650000 3.200000 m 4.650000 11.650000 l 29.650000 11.650000 l 29.650000 3.200000 l f
0.100000 slw
[0.200000] 0 sd
[0.200000] 0 sd
0 slj
0.000000 0.000000 0.000000 srgb
n 4.650000 3.200000 m 4.650000 11.650000 l 29.650000 11.650000 l 29.650000 3.200000 l cp s
0.100000 slw
[] 0 sd
[] 0 sd
0 slc
0 slj
0.100000 slw
0 slc
0 slj
[] 0 sd
0.400000 0.600000 1.000000 srgb
n 16.050000 12.777000 m 20.555000 12.777000 l 20.555000 16.698429 l 19.654000 16.044857 19.203500 16.044857 18.302500 16.698429 c 17.401500 17.352000 16.951000 17.352000 16.050000 16.698429 c 16.050000 12.777000 l ef
0.000000 0.000000 0.000000 srgb
n 16.050000 12.777000 m 20.555000 12.777000 l 20.555000 16.698429 l 19.654000 16.044857 19.203500 16.044857 18.302500 16.698429 c 17.401500 17.352000 16.951000 17.352000 16.050000 16.698429 c 16.050000 12.777000 l s
gsave 17.631250 14.610929 translate 0.035278 -0.035278 scale
start_ol
576 576 moveto
1088 576 lineto
1088 0 lineto
576 0 lineto
576 576 lineto
end_ol grestore 
gsave 17.833557 14.610929 translate 0.035278 -0.035278 scale
start_ol
2752 1480 moveto
2752 1280 lineto
704 1280 lineto
733 811 978 565 conicto
1223 320 1660 320 conicto
1914 320 2152 384 conicto
2390 448 2624 576 conicto
2624 192 lineto
2388 67 2140 1 conicto
1893 -64 1639 -64 conicto
1001 -64 628 309 conicto
256 683 256 1320 conicto
256 1979 613 2365 conicto
970 2752 1576 2752 conicto
2120 2752 2436 2410 conicto
2752 2068 2752 1480 conicto
2304 1600 moveto
2299 1950 2099 2159 conicto
1900 2368 1572 2368 conicto
1200 2368 976 2166 conicto
753 1964 719 1597 conicto
2304 1600 lineto
end_ol grestore 
gsave 18.218195 14.610929 translate 0.035278 -0.035278 scale
start_ol
2624 2688 moveto
1666 1380 lineto
2688 0 lineto
2169 0 lineto
1389 1056 lineto
632 0 lineto
128 0 lineto
1134 1406 lineto
192 2688 lineto
705 2688 lineto
1408 1730 lineto
2111 2688 lineto
2624 2688 lineto
end_ol grestore 
gsave 18.577855 14.610929 translate 0.035278 -0.035278 scale
start_ol
2752 1480 moveto
2752 1280 lineto
704 1280 lineto
733 811 978 565 conicto
1223 320 1660 320 conicto
1914 320 2152 384 conicto
2390 448 2624 576 conicto
2624 192 lineto
2388 67 2140 1 conicto
1893 -64 1639 -64 conicto
1001 -64 628 309 conicto
256 683 256 1320 conicto
256 1979 613 2365 conicto
970 2752 1576 2752 conicto
2120 2752 2436 2410 conicto
2752 2068 2752 1480 conicto
2304 1600 moveto
2299 1950 2099 2159 conicto
1900 2368 1572 2368 conicto
1200 2368 976 2166 conicto
753 1964 719 1597 conicto
2304 1600 lineto
end_ol grestore 
0.100000 slw
[0.200000] 0 sd
[0.200000] 0 sd
0 slc
n 10.900000 10.600000 m 15.621246 14.393315 l s
0 slj
n 15.464662 14.588203 m 16.011022 14.706483 l 15.777830 14.198427 l ef
0.100000 slw
[] 0 sd
0 slj
n 15.464662 14.588203 m 16.011022 14.706483 l 15.777830 14.198427 l cp s
0.100000 slw
[0.200000] 0 sd
[0.200000] 0 sd
0 slc
n 20.555000 14.737800 m 22.565031 14.759157 l s
0 slj
n 22.562375 15.009142 m 23.065003 14.764469 l 22.567687 14.509171 l ef
0.100000 slw
[] 0 sd
0 slj
n 22.562375 15.009142 m 23.065003 14.764469 l 22.567687 14.509171 l cp s
0.100000 slw
[] 0 sd
[] 0 sd
0 slc
0 slj
0.100000 slw
0 slc
0 slj
[] 0 sd
1.000000 0.400000 0.000000 srgb
n 23.700000 12.500000 m 27.700000 12.500000 l 27.700000 16.100000 l 26.900000 15.500000 26.500000 15.500000 25.700000 16.100000 c 24.900000 16.700000 24.500000 16.700000 23.700000 16.100000 c 23.700000 12.500000 l ef
0.000000 0.000000 0.000000 srgb
n 23.700000 12.500000 m 27.700000 12.500000 l 27.700000 16.100000 l 26.900000 15.500000 26.500000 15.500000 25.700000 16.100000 c 24.900000 16.700000 24.500000 16.700000 23.700000 16.100000 c 23.700000 12.500000 l s
0.100000 slw
[] 0 sd
[] 0 sd
0 slc
0 slj
0.100000 slw
0 slc
0 slj
[] 0 sd
1.000000 0.400000 0.000000 srgb
n 23.420000 12.720000 m 27.420000 12.720000 l 27.420000 16.320000 l 26.620000 15.720000 26.220000 15.720000 25.420000 16.320000 c 24.620000 16.920000 24.220000 16.920000 23.420000 16.320000 c 23.420000 12.720000 l ef
0.000000 0.000000 0.000000 srgb
n 23.420000 12.720000 m 27.420000 12.720000 l 27.420000 16.320000 l 26.620000 15.720000 26.220000 15.720000 25.420000 16.320000 c 24.620000 16.920000 24.220000 16.920000 23.420000 16.320000 c 23.420000 12.720000 l s
0.100000 slw
[] 0 sd
[] 0 sd
0 slc
0 slj
0.100000 slw
0 slc
0 slj
[] 0 sd
1.000000 0.400000 0.000000 srgb
n 23.115000 12.965000 m 27.115000 12.965000 l 27.115000 16.565000 l 26.315000 15.965000 25.915000 15.965000 25.115000 16.565000 c 24.315000 17.165000 23.915000 17.165000 23.115000 16.565000 c 23.115000 12.965000 l ef
0.000000 0.000000 0.000000 srgb
n 23.115000 12.965000 m 27.115000 12.965000 l 27.115000 16.565000 l 26.315000 15.965000 25.915000 15.965000 25.115000 16.565000 c 24.315000 17.165000 23.915000 17.165000 23.115000 16.565000 c 23.115000 12.965000 l s
gsave 23.960000 14.665000 translate 0.035278 -0.035278 scale
start_ol
2140 1632 moveto
2295 1581 2442 1413 conicto
2590 1245 2738 952 conicto
3200 0 lineto
2709 0 lineto
2250 893 lineto
2077 1243 1915 1357 conicto
1753 1472 1473 1472 conicto
960 1472 lineto
960 0 lineto
448 0 lineto
448 3520 lineto
1552 3520 lineto
2157 3520 2454 3265 conicto
2752 3010 2752 2496 conicto
2752 2161 2595 1939 conicto
2439 1718 2140 1632 conicto
960 3136 moveto
960 1856 lineto
1552 1856 lineto
1893 1856 2066 2019 conicto
2240 2182 2240 2498 conicto
2240 2815 2066 2975 conicto
1893 3136 1552 3136 conicto
960 3136 lineto
end_ol grestore 
gsave 24.377107 14.665000 translate 0.035278 -0.035278 scale
start_ol
2752 1480 moveto
2752 1280 lineto
704 1280 lineto
733 811 978 565 conicto
1223 320 1660 320 conicto
1914 320 2152 384 conicto
2390 448 2624 576 conicto
2624 192 lineto
2388 67 2140 1 conicto
1893 -64 1639 -64 conicto
1001 -64 628 309 conicto
256 683 256 1320 conicto
256 1979 613 2365 conicto
970 2752 1576 2752 conicto
2120 2752 2436 2410 conicto
2752 2068 2752 1480 conicto
2304 1600 moveto
2299 1950 2099 2159 conicto
1900 2368 1572 2368 conicto
1200 2368 976 2166 conicto
753 1964 719 1597 conicto
2304 1600 lineto
end_ol grestore 
gsave 24.771733 14.665000 translate 0.035278 -0.035278 scale
start_ol
2112 2560 moveto
2112 2176 lineto
1932 2272 1738 2320 conicto
1544 2368 1336 2368 conicto
1020 2368 862 2269 conicto
704 2170 704 1972 conicto
704 1821 814 1735 conicto
925 1649 1260 1571 conicto
1403 1538 lineto
1857 1438 2048 1255 conicto
2240 1072 2240 744 conicto
2240 371 1954 153 conicto
1668 -64 1167 -64 conicto
958 -64 732 -16 conicto
506 32 256 128 conicto
256 576 lineto
491 448 719 384 conicto
947 320 1170 320 conicto
1470 320 1631 425 conicto
1792 531 1792 722 conicto
1792 900 1678 994 conicto
1564 1089 1177 1177 conicto
1032 1212 lineto
621 1298 438 1476 conicto
256 1654 256 1964 conicto
256 2341 520 2546 conicto
784 2752 1269 2752 conicto
1509 2752 1721 2704 conicto
1933 2656 2112 2560 conicto
end_ol grestore 
gsave 25.103918 14.665000 translate 0.035278 -0.035278 scale
start_ol
448 1040 moveto
448 2688 lineto
896 2688 lineto
896 1057 lineto
896 689 1042 504 conicto
1188 320 1481 320 conicto
1832 320 2036 541 conicto
2240 763 2240 1145 conicto
2240 2688 lineto
2688 2688 lineto
2688 0 lineto
2240 0 lineto
2240 384 lineto
2081 157 1870 46 conicto
1660 -64 1382 -64 conicto
923 -64 685 217 conicto
448 499 448 1040 conicto
1554 2752 moveto
1554 2752 lineto
end_ol grestore 
gsave 25.508532 14.665000 translate 0.035278 -0.035278 scale
start_ol
448 3712 moveto
896 3712 lineto
896 0 lineto
448 0 lineto
448 3712 lineto
end_ol grestore 
gsave 25.685861 14.665000 translate 0.035278 -0.035278 scale
start_ol
896 3456 moveto
896 2688 lineto
1792 2688 lineto
1792 2368 lineto
896 2368 lineto
896 902 lineto
896 572 984 478 conicto
1073 384 1345 384 conicto
1792 384 lineto
1792 0 lineto
1345 0 lineto
836 0 642 194 conicto
448 389 448 902 conicto
448 2368 lineto
128 2368 lineto
128 2688 lineto
448 2688 lineto
448 3456 lineto
896 3456 lineto
end_ol grestore 
gsave 25.935627 14.665000 translate 0.035278 -0.035278 scale
start_ol
2112 2560 moveto
2112 2176 lineto
1932 2272 1738 2320 conicto
1544 2368 1336 2368 conicto
1020 2368 862 2269 conicto
704 2170 704 1972 conicto
704 1821 814 1735 conicto
925 1649 1260 1571 conicto
1403 1538 lineto
1857 1438 2048 1255 conicto
2240 1072 2240 744 conicto
2240 371 1954 153 conicto
1668 -64 1167 -64 conicto
958 -64 732 -16 conicto
506 32 256 128 conicto
256 576 lineto
491 448 719 384 conicto
947 320 1170 320 conicto
1470 320 1631 425 conicto
1792 531 1792 722 conicto
1792 900 1678 994 conicto
1564 1089 1177 1177 conicto
1032 1212 lineto
621 1298 438 1476 conicto
256 1654 256 1964 conicto
256 2341 520 2546 conicto
784 2752 1269 2752 conicto
1509 2752 1721 2704 conicto
1933 2656 2112 2560 conicto
end_ol grestore 
0.100000 slw
[] 0 sd
[] 0 sd
0 slc
n 18.302500 18.100000 m 18.302500 17.248500 l s
0 slj
n 18.552500 17.248500 m 18.302500 16.748500 l 18.052500 17.248500 l ef
0.100000 slw
[] 0 sd
0 slj
n 18.552500 17.248500 m 18.302500 16.748500 l 18.052500 17.248500 l cp s
gsave 5.700000 5.000000 translate 0.035278 -0.035278 scale
start_ol
3136 3264 moveto
3136 2752 lineto
2892 2977 2616 3088 conicto
2340 3200 2030 3200 conicto
1418 3200 1093 2829 conicto
768 2459 768 1759 conicto
768 1061 1093 690 conicto
1418 320 2030 320 conicto
2340 320 2616 431 conicto
2892 543 3136 768 conicto
3136 256 lineto
2882 96 2599 16 conicto
2316 -64 2000 -64 conicto
1189 -64 722 424 conicto
256 913 256 1759 conicto
256 2607 722 3095 conicto
1189 3584 2000 3584 conicto
2320 3584 2603 3504 conicto
2887 3424 3136 3264 conicto
end_ol grestore 
gsave 6.147080 5.000000 translate 0.035278 -0.035278 scale
start_ol
1473 2368 moveto
1117 2368 910 2094 conicto
704 1820 704 1344 conicto
704 868 909 594 conicto
1115 320 1473 320 conicto
1827 320 2033 595 conicto
2240 870 2240 1344 conicto
2240 1816 2033 2092 conicto
1827 2368 1473 2368 conicto
1472 2752 moveto
2040 2752 2364 2378 conicto
2688 2005 2688 1344 conicto
2688 685 2364 310 conicto
2040 -64 1472 -64 conicto
902 -64 579 310 conicto
256 685 256 1344 conicto
256 2005 579 2378 conicto
902 2752 1472 2752 conicto
end_ol grestore 
gsave 6.539209 5.000000 translate 0.035278 -0.035278 scale
start_ol
2549 2204 moveto
2714 2485 2942 2618 conicto
3171 2752 3482 2752 conicto
3899 2752 4125 2464 conicto
4352 2177 4352 1646 conicto
4352 0 lineto
3904 0 lineto
3904 1632 lineto
3904 2006 3769 2187 conicto
3634 2368 3356 2368 conicto
3017 2368 2820 2146 conicto
2624 1925 2624 1542 conicto
2624 0 lineto
2176 0 lineto
2176 1632 lineto
2176 2008 2041 2188 conicto
1906 2368 1624 2368 conicto
1289 2368 1092 2145 conicto
896 1922 896 1542 conicto
896 0 lineto
448 0 lineto
448 2688 lineto
896 2688 lineto
896 2304 lineto
1046 2534 1255 2643 conicto
1465 2752 1753 2752 conicto
2044 2752 2247 2611 conicto
2451 2471 2549 2204 conicto
end_ol grestore 
gsave 7.161120 5.000000 translate 0.035278 -0.035278 scale
start_ol
896 384 moveto
896 -1024 lineto
448 -1024 lineto
448 2688 lineto
896 2688 lineto
896 2304 lineto
1032 2531 1240 2641 conicto
1448 2752 1737 2752 conicto
2217 2752 2516 2364 conicto
2816 1976 2816 1344 conicto
2816 712 2516 324 conicto
2217 -64 1737 -64 conicto
1448 -64 1240 46 conicto
1032 157 896 384 conicto
2368 1344 moveto
2368 1823 2171 2095 conicto
1975 2368 1632 2368 conicto
1289 2368 1092 2095 conicto
896 1823 896 1344 conicto
896 865 1092 592 conicto
1289 320 1632 320 conicto
1975 320 2171 592 conicto
2368 865 2368 1344 conicto
end_ol grestore 
gsave 7.568239 5.000000 translate 0.035278 -0.035278 scale
start_ol
448 2688 moveto
896 2688 lineto
896 0 lineto
448 0 lineto
448 2688 lineto
448 3712 moveto
896 3712 lineto
896 3136 lineto
448 3136 lineto
448 3712 lineto
end_ol grestore 
gsave 7.745568 5.000000 translate 0.035278 -0.035278 scale
start_ol
448 3712 moveto
896 3712 lineto
896 0 lineto
448 0 lineto
448 3712 lineto
end_ol grestore 
gsave 7.922897 5.000000 translate 0.035278 -0.035278 scale
start_ol
2752 1480 moveto
2752 1280 lineto
704 1280 lineto
733 811 978 565 conicto
1223 320 1660 320 conicto
1914 320 2152 384 conicto
2390 448 2624 576 conicto
2624 192 lineto
2388 67 2140 1 conicto
1893 -64 1639 -64 conicto
1001 -64 628 309 conicto
256 683 256 1320 conicto
256 1979 613 2365 conicto
970 2752 1576 2752 conicto
2120 2752 2436 2410 conicto
2752 2068 2752 1480 conicto
2304 1600 moveto
2299 1950 2099 2159 conicto
1900 2368 1572 2368 conicto
1200 2368 976 2166 conicto
753 1964 719 1597 conicto
2304 1600 lineto
end_ol grestore 
gsave 8.317523 5.000000 translate 0.035278 -0.035278 scale
start_ol
256 1536 moveto
1536 1536 lineto
1536 1152 lineto
256 1152 lineto
256 1536 lineto
end_ol grestore 
gsave 8.547305 5.000000 translate 0.035278 -0.035278 scale
start_ol
896 3456 moveto
896 2688 lineto
1792 2688 lineto
1792 2368 lineto
896 2368 lineto
896 902 lineto
896 572 984 478 conicto
1073 384 1345 384 conicto
1792 384 lineto
1792 0 lineto
1345 0 lineto
836 0 642 194 conicto
448 389 448 902 conicto
448 2368 lineto
128 2368 lineto
128 2688 lineto
448 2688 lineto
448 3456 lineto
896 3456 lineto
end_ol grestore 
gsave 8.797072 5.000000 translate 0.035278 -0.035278 scale
start_ol
448 2688 moveto
896 2688 lineto
896 0 lineto
448 0 lineto
448 2688 lineto
448 3712 moveto
896 3712 lineto
896 3136 lineto
448 3136 lineto
448 3712 lineto
end_ol grestore 
gsave 8.974401 5.000000 translate 0.035278 -0.035278 scale
start_ol
2549 2204 moveto
2714 2485 2942 2618 conicto
3171 2752 3482 2752 conicto
3899 2752 4125 2464 conicto
4352 2177 4352 1646 conicto
4352 0 lineto
3904 0 lineto
3904 1632 lineto
3904 2006 3769 2187 conicto
3634 2368 3356 2368 conicto
3017 2368 2820 2146 conicto
2624 1925 2624 1542 conicto
2624 0 lineto
2176 0 lineto
2176 1632 lineto
2176 2008 2041 2188 conicto
1906 2368 1624 2368 conicto
1289 2368 1092 2145 conicto
896 1922 896 1542 conicto
896 0 lineto
448 0 lineto
448 2688 lineto
896 2688 lineto
896 2304 lineto
1046 2534 1255 2643 conicto
1465 2752 1753 2752 conicto
2044 2752 2247 2611 conicto
2451 2471 2549 2204 conicto
end_ol grestore 
gsave 9.596312 5.000000 translate 0.035278 -0.035278 scale
start_ol
2752 1480 moveto
2752 1280 lineto
704 1280 lineto
733 811 978 565 conicto
1223 320 1660 320 conicto
1914 320 2152 384 conicto
2390 448 2624 576 conicto
2624 192 lineto
2388 67 2140 1 conicto
1893 -64 1639 -64 conicto
1001 -64 628 309 conicto
256 683 256 1320 conicto
256 1979 613 2365 conicto
970 2752 1576 2752 conicto
2120 2752 2436 2410 conicto
2752 2068 2752 1480 conicto
2304 1600 moveto
2299 1950 2099 2159 conicto
1900 2368 1572 2368 conicto
1200 2368 976 2166 conicto
753 1964 719 1597 conicto
2304 1600 lineto
end_ol grestore 
gsave 20.000000 5.000000 translate 0.035278 -0.035278 scale
start_ol
2140 1632 moveto
2295 1581 2442 1413 conicto
2590 1245 2738 952 conicto
3200 0 lineto
2709 0 lineto
2250 893 lineto
2077 1243 1915 1357 conicto
1753 1472 1473 1472 conicto
960 1472 lineto
960 0 lineto
448 0 lineto
448 3520 lineto
1552 3520 lineto
2157 3520 2454 3265 conicto
2752 3010 2752 2496 conicto
2752 2161 2595 1939 conicto
2439 1718 2140 1632 conicto
960 3136 moveto
960 1856 lineto
1552 1856 lineto
1893 1856 2066 2019 conicto
2240 2182 2240 2498 conicto
2240 2815 2066 2975 conicto
1893 3136 1552 3136 conicto
960 3136 lineto
end_ol grestore 
gsave 20.417107 5.000000 translate 0.035278 -0.035278 scale
start_ol
448 1040 moveto
448 2688 lineto
896 2688 lineto
896 1057 lineto
896 689 1042 504 conicto
1188 320 1481 320 conicto
1832 320 2036 541 conicto
2240 763 2240 1145 conicto
2240 2688 lineto
2688 2688 lineto
2688 0 lineto
2240 0 lineto
2240 384 lineto
2081 157 1870 46 conicto
1660 -64 1382 -64 conicto
923 -64 685 217 conicto
448 499 448 1040 conicto
1554 2752 moveto
1554 2752 lineto
end_ol grestore 
gsave 20.821721 5.000000 translate 0.035278 -0.035278 scale
start_ol
2688 1646 moveto
2688 0 lineto
2240 0 lineto
2240 1632 lineto
2240 2001 2093 2184 conicto
1947 2368 1654 2368 conicto
1302 2368 1099 2146 conicto
896 1925 896 1542 conicto
896 0 lineto
448 0 lineto
448 2688 lineto
896 2688 lineto
896 2304 lineto
1053 2529 1266 2640 conicto
1479 2752 1757 2752 conicto
2217 2752 2452 2471 conicto
2688 2191 2688 1646 conicto
end_ol grestore 
gsave 21.226335 5.000000 translate 0.035278 -0.035278 scale
start_ol
256 1536 moveto
1536 1536 lineto
1536 1152 lineto
256 1152 lineto
256 1536 lineto
end_ol grestore 
gsave 21.456118 5.000000 translate 0.035278 -0.035278 scale
start_ol
896 3456 moveto
896 2688 lineto
1792 2688 lineto
1792 2368 lineto
896 2368 lineto
896 902 lineto
896 572 984 478 conicto
1073 384 1345 384 conicto
1792 384 lineto
1792 0 lineto
1345 0 lineto
836 0 642 194 conicto
448 389 448 902 conicto
448 2368 lineto
128 2368 lineto
128 2688 lineto
448 2688 lineto
448 3456 lineto
896 3456 lineto
end_ol grestore 
gsave 21.705885 5.000000 translate 0.035278 -0.035278 scale
start_ol
448 2688 moveto
896 2688 lineto
896 0 lineto
448 0 lineto
448 2688 lineto
448 3712 moveto
896 3712 lineto
896 3136 lineto
448 3136 lineto
448 3712 lineto
end_ol grestore 
gsave 21.883213 5.000000 translate 0.035278 -0.035278 scale
start_ol
2549 2204 moveto
2714 2485 2942 2618 conicto
3171 2752 3482 2752 conicto
3899 2752 4125 2464 conicto
4352 2177 4352 1646 conicto
4352 0 lineto
3904 0 lineto
3904 1632 lineto
3904 2006 3769 2187 conicto
3634 2368 3356 2368 conicto
3017 2368 2820 2146 conicto
2624 1925 2624 1542 conicto
2624 0 lineto
2176 0 lineto
2176 1632 lineto
2176 2008 2041 2188 conicto
1906 2368 1624 2368 conicto
1289 2368 1092 2145 conicto
896 1922 896 1542 conicto
896 0 lineto
448 0 lineto
448 2688 lineto
896 2688 lineto
896 2304 lineto
1046 2534 1255 2643 conicto
1465 2752 1753 2752 conicto
2044 2752 2247 2611 conicto
2451 2471 2549 2204 conicto
end_ol grestore 
gsave 22.505125 5.000000 translate 0.035278 -0.035278 scale
start_ol
2752 1480 moveto
2752 1280 lineto
704 1280 lineto
733 811 978 565 conicto
1223 320 1660 320 conicto
1914 320 2152 384 conicto
2390 448 2624 576 conicto
2624 192 lineto
2388 67 2140 1 conicto
1893 -64 1639 -64 conicto
1001 -64 628 309 conicto
256 683 256 1320 conicto
256 1979 613 2365 conicto
970 2752 1576 2752 conicto
2120 2752 2436 2410 conicto
2752 2068 2752 1480 conicto
2304 1600 moveto
2299 1950 2099 2159 conicto
1900 2368 1572 2368 conicto
1200 2368 976 2166 conicto
753 1964 719 1597 conicto
2304 1600 lineto
end_ol grestore 
0.100000 slw
[] 0 sd
[] 0 sd
0 slc
0.498039 0.498039 0.498039 srgb
n 15.000000 23.000000 m 15.000000 4.000000 l s
0.100000 slw
[] 0 sd
[] 0 sd
0 slc
0 slj
0.100000 slw
0 slc
0 slj
[] 0 sd
1.000000 0.400000 0.000000 srgb
n 16.050000 18.100000 m 20.555000 18.100000 l 20.555000 22.021429 l 19.654000 21.367857 19.203500 21.367857 18.302500 22.021429 c 17.401500 22.675000 16.951000 22.675000 16.050000 22.021429 c 16.050000 18.100000 l ef
0.000000 0.000000 0.000000 srgb
n 16.050000 18.100000 m 20.555000 18.100000 l 20.555000 22.021429 l 19.654000 21.367857 19.203500 21.367857 18.302500 22.021429 c 17.401500 22.675000 16.951000 22.675000 16.050000 22.021429 c 16.050000 18.100000 l s
gsave 16.513750 19.533929 translate 0.035278 -0.035278 scale
start_ol
1696 3047 moveto
1042 1280 lineto
2352 1280 lineto
1696 3047 lineto
1424 3520 moveto
1970 3520 lineto
3328 0 lineto
2827 0 lineto
2502 896 lineto
897 896 lineto
572 0 lineto
64 0 lineto
1424 3520 lineto
end_ol grestore 
gsave 16.950842 19.533929 translate 0.035278 -0.035278 scale
start_ol
896 384 moveto
896 -1024 lineto
448 -1024 lineto
448 2688 lineto
896 2688 lineto
896 2304 lineto
1032 2531 1240 2641 conicto
1448 2752 1737 2752 conicto
2217 2752 2516 2364 conicto
2816 1976 2816 1344 conicto
2816 712 2516 324 conicto
2217 -64 1737 -64 conicto
1448 -64 1240 46 conicto
1032 157 896 384 conicto
2368 1344 moveto
2368 1823 2171 2095 conicto
1975 2368 1632 2368 conicto
1289 2368 1092 2095 conicto
896 1823 896 1344 conicto
896 865 1092 592 conicto
1289 320 1632 320 conicto
1975 320 2171 592 conicto
2368 865 2368 1344 conicto
end_ol grestore 
gsave 17.357961 19.533929 translate 0.035278 -0.035278 scale
start_ol
896 384 moveto
896 -1024 lineto
448 -1024 lineto
448 2688 lineto
896 2688 lineto
896 2304 lineto
1032 2531 1240 2641 conicto
1448 2752 1737 2752 conicto
2217 2752 2516 2364 conicto
2816 1976 2816 1344 conicto
2816 712 2516 324 conicto
2217 -64 1737 -64 conicto
1448 -64 1240 46 conicto
1032 157 896 384 conicto
2368 1344 moveto
2368 1823 2171 2095 conicto
1975 2368 1632 2368 conicto
1289 2368 1092 2095 conicto
896 1823 896 1344 conicto
896 865 1092 592 conicto
1289 320 1632 320 conicto
1975 320 2171 592 conicto
2368 865 2368 1344 conicto
end_ol grestore 
gsave 17.765080 19.533929 translate 0.035278 -0.035278 scale
start_ol
448 3712 moveto
896 3712 lineto
896 0 lineto
448 0 lineto
448 3712 lineto
end_ol grestore 
gsave 17.942409 19.533929 translate 0.035278 -0.035278 scale
start_ol
448 2688 moveto
896 2688 lineto
896 0 lineto
448 0 lineto
448 2688 lineto
448 3712 moveto
896 3712 lineto
896 3136 lineto
448 3136 lineto
448 3712 lineto
end_ol grestore 
gsave 18.119738 19.533929 translate 0.035278 -0.035278 scale
start_ol
2368 2560 moveto
2368 2176 lineto
2180 2272 1991 2320 conicto
1803 2368 1611 2368 conicto
1180 2368 942 2099 conicto
704 1830 704 1344 conicto
704 858 942 589 conicto
1180 320 1611 320 conicto
1803 320 1991 368 conicto
2180 416 2368 512 conicto
2368 128 lineto
2184 32 1987 -16 conicto
1791 -64 1569 -64 conicto
966 -64 611 316 conicto
256 697 256 1344 conicto
256 2000 615 2376 conicto
974 2752 1598 2752 conicto
1801 2752 1994 2704 conicto
2187 2656 2368 2560 conicto
end_ol grestore 
gsave 18.471906 19.533929 translate 0.035278 -0.035278 scale
start_ol
1622 1344 moveto
1104 1344 904 1225 conicto
704 1106 704 818 conicto
704 589 854 454 conicto
1004 320 1262 320 conicto
1618 320 1833 572 conicto
2048 825 2048 1244 conicto
2048 1344 lineto
1622 1344 lineto
2496 1513 moveto
2496 0 lineto
2048 0 lineto
2048 384 lineto
1900 154 1679 45 conicto
1458 -64 1138 -64 conicto
733 -64 494 162 conicto
256 389 256 769 conicto
256 1213 555 1438 conicto
854 1664 1448 1664 conicto
2048 1664 lineto
2048 1712 lineto
2048 2025 1851 2196 conicto
1655 2368 1300 2368 conicto
1074 2368 860 2320 conicto
646 2272 448 2176 conicto
448 2560 lineto
687 2656 912 2704 conicto
1138 2752 1351 2752 conicto
1927 2752 2211 2444 conicto
2496 2137 2496 1513 conicto
end_ol grestore 
gsave 18.864035 19.533929 translate 0.035278 -0.035278 scale
start_ol
896 3456 moveto
896 2688 lineto
1792 2688 lineto
1792 2368 lineto
896 2368 lineto
896 902 lineto
896 572 984 478 conicto
1073 384 1345 384 conicto
1792 384 lineto
1792 0 lineto
1345 0 lineto
836 0 642 194 conicto
448 389 448 902 conicto
448 2368 lineto
128 2368 lineto
128 2688 lineto
448 2688 lineto
448 3456 lineto
896 3456 lineto
end_ol grestore 
gsave 19.113802 19.533929 translate 0.035278 -0.035278 scale
start_ol
448 2688 moveto
896 2688 lineto
896 0 lineto
448 0 lineto
448 2688 lineto
448 3712 moveto
896 3712 lineto
896 3136 lineto
448 3136 lineto
448 3712 lineto
end_ol grestore 
gsave 19.291131 19.533929 translate 0.035278 -0.035278 scale
start_ol
1473 2368 moveto
1117 2368 910 2094 conicto
704 1820 704 1344 conicto
704 868 909 594 conicto
1115 320 1473 320 conicto
1827 320 2033 595 conicto
2240 870 2240 1344 conicto
2240 1816 2033 2092 conicto
1827 2368 1473 2368 conicto
1472 2752 moveto
2040 2752 2364 2378 conicto
2688 2005 2688 1344 conicto
2688 685 2364 310 conicto
2040 -64 1472 -64 conicto
902 -64 579 310 conicto
256 685 256 1344 conicto
256 2005 579 2378 conicto
902 2752 1472 2752 conicto
end_ol grestore 
gsave 19.683260 19.533929 translate 0.035278 -0.035278 scale
start_ol
2688 1646 moveto
2688 0 lineto
2240 0 lineto
2240 1632 lineto
2240 2001 2093 2184 conicto
1947 2368 1654 2368 conicto
1302 2368 1099 2146 conicto
896 1925 896 1542 conicto
896 0 lineto
448 0 lineto
448 2688 lineto
896 2688 lineto
896 2304 lineto
1053 2529 1266 2640 conicto
1479 2752 1757 2752 conicto
2217 2752 2452 2471 conicto
2688 2191 2688 1646 conicto
end_ol grestore 
gsave 17.480000 20.333929 translate 0.035278 -0.035278 scale
start_ol
448 2688 moveto
896 2688 lineto
896 0 lineto
448 0 lineto
448 2688 lineto
448 3712 moveto
896 3712 lineto
896 3136 lineto
448 3136 lineto
448 3712 lineto
end_ol grestore 
gsave 17.657329 20.333929 translate 0.035278 -0.035278 scale
start_ol
2688 1646 moveto
2688 0 lineto
2240 0 lineto
2240 1632 lineto
2240 2001 2093 2184 conicto
1947 2368 1654 2368 conicto
1302 2368 1099 2146 conicto
896 1925 896 1542 conicto
896 0 lineto
448 0 lineto
448 2688 lineto
896 2688 lineto
896 2304 lineto
1053 2529 1266 2640 conicto
1479 2752 1757 2752 conicto
2217 2752 2452 2471 conicto
2688 2191 2688 1646 conicto
end_ol grestore 
gsave 18.061943 20.333929 translate 0.035278 -0.035278 scale
start_ol
896 384 moveto
896 -1024 lineto
448 -1024 lineto
448 2688 lineto
896 2688 lineto
896 2304 lineto
1032 2531 1240 2641 conicto
1448 2752 1737 2752 conicto
2217 2752 2516 2364 conicto
2816 1976 2816 1344 conicto
2816 712 2516 324 conicto
2217 -64 1737 -64 conicto
1448 -64 1240 46 conicto
1032 157 896 384 conicto
2368 1344 moveto
2368 1823 2171 2095 conicto
1975 2368 1632 2368 conicto
1289 2368 1092 2095 conicto
896 1823 896 1344 conicto
896 865 1092 592 conicto
1289 320 1632 320 conicto
1975 320 2171 592 conicto
2368 865 2368 1344 conicto
end_ol grestore 
gsave 18.469062 20.333929 translate 0.035278 -0.035278 scale
start_ol
448 1040 moveto
448 2688 lineto
896 2688 lineto
896 1057 lineto
896 689 1042 504 conicto
1188 320 1481 320 conicto
1832 320 2036 541 conicto
2240 763 2240 1145 conicto
2240 2688 lineto
2688 2688 lineto
2688 0 lineto
2240 0 lineto
2240 384 lineto
2081 157 1870 46 conicto
1660 -64 1382 -64 conicto
923 -64 685 217 conicto
448 499 448 1040 conicto
1554 2752 moveto
1554 2752 lineto
end_ol grestore 
gsave 18.873676 20.333929 translate 0.035278 -0.035278 scale
start_ol
896 3456 moveto
896 2688 lineto
1792 2688 lineto
1792 2368 lineto
896 2368 lineto
896 902 lineto
896 572 984 478 conicto
1073 384 1345 384 conicto
1792 384 lineto
1792 0 lineto
1345 0 lineto
836 0 642 194 conicto
448 389 448 902 conicto
448 2368 lineto
128 2368 lineto
128 2688 lineto
448 2688 lineto
448 3456 lineto
896 3456 lineto
end_ol grestore 
0.100000 slw
[] 0 sd
[] 0 sd
0 slc
0 slj
0.100000 slw
0 slc
0 slj
[] 0 sd
0.400000 0.600000 1.000000 srgb
n 2.300000 12.877100 m 6.300000 12.877100 l 6.300000 15.612068 l 5.500000 15.156240 5.100000 15.156240 4.300000 15.612068 c 3.500000 16.067896 3.100000 16.067896 2.300000 15.612068 c 2.300000 12.877100 l ef
0.000000 0.000000 0.000000 srgb
n 2.300000 12.877100 m 6.300000 12.877100 l 6.300000 15.612068 l 5.500000 15.156240 5.100000 15.156240 4.300000 15.612068 c 3.500000 16.067896 3.100000 16.067896 2.300000 15.612068 c 2.300000 12.877100 l s
0.100000 slw
[] 0 sd
[] 0 sd
0 slc
0 slj
0.100000 slw
0 slc
0 slj
[] 0 sd
0.400000 0.600000 1.000000 srgb
n 2.090000 13.097000 m 6.090000 13.097000 l 6.090000 15.855529 l 5.290000 15.395774 4.890000 15.395774 4.090000 15.855529 c 3.290000 16.315284 2.890000 16.315284 2.090000 15.855529 c 2.090000 13.097000 l ef
0.000000 0.000000 0.000000 srgb
n 2.090000 13.097000 m 6.090000 13.097000 l 6.090000 15.855529 l 5.290000 15.395774 4.890000 15.395774 4.090000 15.855529 c 3.290000 16.315284 2.890000 16.315284 2.090000 15.855529 c 2.090000 13.097000 l s
0.100000 slw
[] 0 sd
[] 0 sd
0 slc
0 slj
0.100000 slw
0 slc
0 slj
[] 0 sd
0.400000 0.600000 1.000000 srgb
n 1.860000 13.317000 m 5.860000 13.317000 l 5.860000 16.190003 l 5.060000 15.711169 4.660000 15.711169 3.860000 16.190003 c 3.060000 16.668837 2.660000 16.668837 1.860000 16.190003 c 1.860000 13.317000 l ef
0.000000 0.000000 0.000000 srgb
n 1.860000 13.317000 m 5.860000 13.317000 l 5.860000 16.190003 l 5.060000 15.711169 4.660000 15.711169 3.860000 16.190003 c 3.060000 16.668837 2.660000 16.668837 1.860000 16.190003 c 1.860000 13.317000 l s
0.100000 slw
[] 0 sd
[] 0 sd
0 slc
0 slj
0.100000 slw
0 slc
0 slj
[] 0 sd
0.400000 0.600000 1.000000 srgb
n 1.630000 13.512100 m 5.630000 13.512100 l 5.630000 16.460397 l 4.830000 15.969014 4.430000 15.969014 3.630000 16.460397 c 2.830000 16.951780 2.430000 16.951780 1.630000 16.460397 c 1.630000 13.512100 l ef
0.000000 0.000000 0.000000 srgb
n 1.630000 13.512100 m 5.630000 13.512100 l 5.630000 16.460397 l 4.830000 15.969014 4.430000 15.969014 3.630000 16.460397 c 2.830000 16.951780 2.430000 16.951780 1.630000 16.460397 c 1.630000 13.512100 l s
gsave 2.530000 14.540557 translate 0.035278 -0.035278 scale
start_ol
2624 3392 moveto
2624 2944 lineto
2352 3073 2111 3136 conicto
1870 3200 1645 3200 conicto
1255 3200 1043 3052 conicto
832 2904 832 2631 conicto
832 2402 969 2285 conicto
1107 2169 1491 2097 conicto
1773 2039 lineto
2308 1937 2562 1678 conicto
2816 1420 2816 986 conicto
2816 469 2468 202 conicto
2121 -64 1450 -64 conicto
1197 -64 911 0 conicto
626 65 320 192 conicto
320 704 lineto
613 513 893 416 conicto
1174 320 1445 320 conicto
1857 320 2080 485 conicto
2304 650 2304 955 conicto
2304 1221 2148 1371 conicto
1992 1522 1636 1597 conicto
1352 1652 lineto
807 1756 563 1978 conicto
320 2201 320 2597 conicto
320 3056 654 3320 conicto
989 3584 1576 3584 conicto
1828 3584 2089 3536 conicto
2351 3488 2624 3392 conicto
end_ol grestore 
gsave 2.937119 14.540557 translate 0.035278 -0.035278 scale
start_ol
1473 2368 moveto
1117 2368 910 2094 conicto
704 1820 704 1344 conicto
704 868 909 594 conicto
1115 320 1473 320 conicto
1827 320 2033 595 conicto
2240 870 2240 1344 conicto
2240 1816 2033 2092 conicto
1827 2368 1473 2368 conicto
1472 2752 moveto
2040 2752 2364 2378 conicto
2688 2005 2688 1344 conicto
2688 685 2364 310 conicto
2040 -64 1472 -64 conicto
902 -64 579 310 conicto
256 685 256 1344 conicto
256 2005 579 2378 conicto
902 2752 1472 2752 conicto
end_ol grestore 
gsave 3.329248 14.540557 translate 0.035278 -0.035278 scale
start_ol
448 1040 moveto
448 2688 lineto
896 2688 lineto
896 1057 lineto
896 689 1042 504 conicto
1188 320 1481 320 conicto
1832 320 2036 541 conicto
2240 763 2240 1145 conicto
2240 2688 lineto
2688 2688 lineto
2688 0 lineto
2240 0 lineto
2240 384 lineto
2081 157 1870 46 conicto
1660 -64 1382 -64 conicto
923 -64 685 217 conicto
448 499 448 1040 conicto
1554 2752 moveto
1554 2752 lineto
end_ol grestore 
gsave 3.733862 14.540557 translate 0.035278 -0.035278 scale
start_ol
1984 2304 moveto
1912 2337 1828 2352 conicto
1744 2368 1642 2368 conicto
1282 2368 1089 2127 conicto
896 1887 896 1437 conicto
896 0 lineto
448 0 lineto
448 2688 lineto
896 2688 lineto
896 2304 lineto
1030 2531 1245 2641 conicto
1460 2752 1767 2752 conicto
1811 2752 1864 2752 conicto
1917 2752 1982 2752 conicto
1984 2304 lineto
end_ol grestore 
gsave 3.981124 14.540557 translate 0.035278 -0.035278 scale
start_ol
2368 2560 moveto
2368 2176 lineto
2180 2272 1991 2320 conicto
1803 2368 1611 2368 conicto
1180 2368 942 2099 conicto
704 1830 704 1344 conicto
704 858 942 589 conicto
1180 320 1611 320 conicto
1803 320 1991 368 conicto
2180 416 2368 512 conicto
2368 128 lineto
2184 32 1987 -16 conicto
1791 -64 1569 -64 conicto
966 -64 611 316 conicto
256 697 256 1344 conicto
256 2000 615 2376 conicto
974 2752 1598 2752 conicto
1801 2752 1994 2704 conicto
2187 2656 2368 2560 conicto
end_ol grestore 
gsave 4.333293 14.540557 translate 0.035278 -0.035278 scale
start_ol
2752 1480 moveto
2752 1280 lineto
704 1280 lineto
733 811 978 565 conicto
1223 320 1660 320 conicto
1914 320 2152 384 conicto
2390 448 2624 576 conicto
2624 192 lineto
2388 67 2140 1 conicto
1893 -64 1639 -64 conicto
1001 -64 628 309 conicto
256 683 256 1320 conicto
256 1979 613 2365 conicto
970 2752 1576 2752 conicto
2120 2752 2436 2410 conicto
2752 2068 2752 1480 conicto
2304 1600 moveto
2299 1950 2099 2159 conicto
1900 2368 1572 2368 conicto
1200 2368 976 2166 conicto
753 1964 719 1597 conicto
2304 1600 lineto
end_ol grestore 
gsave 2.808750 15.340557 translate 0.035278 -0.035278 scale
start_ol
3136 3264 moveto
3136 2752 lineto
2892 2977 2616 3088 conicto
2340 3200 2030 3200 conicto
1418 3200 1093 2829 conicto
768 2459 768 1759 conicto
768 1061 1093 690 conicto
1418 320 2030 320 conicto
2340 320 2616 431 conicto
2892 543 3136 768 conicto
3136 256 lineto
2882 96 2599 16 conicto
2316 -64 2000 -64 conicto
1189 -64 722 424 conicto
256 913 256 1759 conicto
256 2607 722 3095 conicto
1189 3584 2000 3584 conicto
2320 3584 2603 3504 conicto
2887 3424 3136 3264 conicto
end_ol grestore 
gsave 3.255830 15.340557 translate 0.035278 -0.035278 scale
start_ol
1473 2368 moveto
1117 2368 910 2094 conicto
704 1820 704 1344 conicto
704 868 909 594 conicto
1115 320 1473 320 conicto
1827 320 2033 595 conicto
2240 870 2240 1344 conicto
2240 1816 2033 2092 conicto
1827 2368 1473 2368 conicto
1472 2752 moveto
2040 2752 2364 2378 conicto
2688 2005 2688 1344 conicto
2688 685 2364 310 conicto
2040 -64 1472 -64 conicto
902 -64 579 310 conicto
256 685 256 1344 conicto
256 2005 579 2378 conicto
902 2752 1472 2752 conicto
end_ol grestore 
gsave 3.647959 15.340557 translate 0.035278 -0.035278 scale
start_ol
2176 2304 moveto
2176 3712 lineto
2624 3712 lineto
2624 0 lineto
2176 0 lineto
2176 384 lineto
2040 157 1832 46 conicto
1624 -64 1332 -64 conicto
855 -64 555 324 conicto
256 712 256 1344 conicto
256 1976 555 2364 conicto
855 2752 1332 2752 conicto
1624 2752 1832 2641 conicto
2040 2531 2176 2304 conicto
704 1344 moveto
704 865 900 592 conicto
1096 320 1439 320 conicto
1782 320 1979 592 conicto
2176 865 2176 1344 conicto
2176 1823 1979 2095 conicto
1782 2368 1439 2368 conicto
1096 2368 900 2095 conicto
704 1823 704 1344 conicto
end_ol grestore 
gsave 4.055078 15.340557 translate 0.035278 -0.035278 scale
start_ol
2752 1480 moveto
2752 1280 lineto
704 1280 lineto
733 811 978 565 conicto
1223 320 1660 320 conicto
1914 320 2152 384 conicto
2390 448 2624 576 conicto
2624 192 lineto
2388 67 2140 1 conicto
1893 -64 1639 -64 conicto
1001 -64 628 309 conicto
256 683 256 1320 conicto
256 1979 613 2365 conicto
970 2752 1576 2752 conicto
2120 2752 2436 2410 conicto
2752 2068 2752 1480 conicto
2304 1600 moveto
2299 1950 2099 2159 conicto
1900 2368 1572 2368 conicto
1200 2368 976 2166 conicto
753 1964 719 1597 conicto
2304 1600 lineto
end_ol grestore 
1.000000 0.752941 0.796078 srgb
n 8.000000 7.100000 m 8.000000 10.600000 l 13.800000 10.600000 l 13.800000 7.100000 l f
0.100000 slw
[] 0 sd
[] 0 sd
0 slj
0.000000 0.000000 0.000000 srgb
n 8.000000 7.100000 m 8.000000 10.600000 l 13.800000 10.600000 l 13.800000 7.100000 l cp s
gsave 8.810000 9.045000 translate 0.035278 -0.035278 scale
start_ol
960 3136 moveto
960 1792 lineto
1552 1792 lineto
1881 1792 2060 1967 conicto
2240 2142 2240 2465 conicto
2240 2786 2060 2961 conicto
1881 3136 1552 3136 conicto
960 3136 lineto
448 3520 moveto
1552 3520 lineto
2145 3520 2448 3251 conicto
2752 2983 2752 2465 conicto
2752 1943 2448 1675 conicto
2145 1408 1552 1408 conicto
960 1408 lineto
960 0 lineto
448 0 lineto
448 3520 lineto
end_ol grestore 
gsave 9.179648 9.045000 translate 0.035278 -0.035278 scale
start_ol
448 2688 moveto
896 2688 lineto
896 0 lineto
448 0 lineto
448 2688 lineto
448 3712 moveto
896 3712 lineto
896 3136 lineto
448 3136 lineto
448 3712 lineto
end_ol grestore 
gsave 9.356976 9.045000 translate 0.035278 -0.035278 scale
start_ol
448 3712 moveto
896 3712 lineto
896 0 lineto
448 0 lineto
448 3712 lineto
end_ol grestore 
gsave 9.534305 9.045000 translate 0.035278 -0.035278 scale
start_ol
1473 2368 moveto
1117 2368 910 2094 conicto
704 1820 704 1344 conicto
704 868 909 594 conicto
1115 320 1473 320 conicto
1827 320 2033 595 conicto
2240 870 2240 1344 conicto
2240 1816 2033 2092 conicto
1827 2368 1473 2368 conicto
1472 2752 moveto
2040 2752 2364 2378 conicto
2688 2005 2688 1344 conicto
2688 685 2364 310 conicto
2040 -64 1472 -64 conicto
902 -64 579 310 conicto
256 685 256 1344 conicto
256 2005 579 2378 conicto
902 2752 1472 2752 conicto
end_ol grestore 
gsave 9.926434 9.045000 translate 0.035278 -0.035278 scale
start_ol
896 3456 moveto
896 2688 lineto
1792 2688 lineto
1792 2368 lineto
896 2368 lineto
896 902 lineto
896 572 984 478 conicto
1073 384 1345 384 conicto
1792 384 lineto
1792 0 lineto
1345 0 lineto
836 0 642 194 conicto
448 389 448 902 conicto
448 2368 lineto
128 2368 lineto
128 2688 lineto
448 2688 lineto
448 3456 lineto
896 3456 lineto
end_ol grestore 
gsave 10.176201 9.045000 translate 0.035278 -0.035278 scale
start_ol
end_ol grestore 
gsave 10.378508 9.045000 translate 0.035278 -0.035278 scale
start_ol
2240 3072 moveto
2240 1728 lineto
3584 1728 lineto
3584 1344 lineto
2240 1344 lineto
2240 0 lineto
1856 0 lineto
1856 1344 lineto
512 1344 lineto
512 1728 lineto
1856 1728 lineto
1856 3072 lineto
2240 3072 lineto
end_ol grestore 
gsave 10.915505 9.045000 translate 0.035278 -0.035278 scale
start_ol
end_ol grestore 
gsave 11.117812 9.045000 translate 0.035278 -0.035278 scale
start_ol
1696 3047 moveto
1042 1280 lineto
2352 1280 lineto
1696 3047 lineto
1424 3520 moveto
1970 3520 lineto
3328 0 lineto
2827 0 lineto
2502 896 lineto
897 896 lineto
572 0 lineto
64 0 lineto
1424 3520 lineto
end_ol grestore 
gsave 11.544907 9.045000 translate 0.035278 -0.035278 scale
start_ol
2752 1480 moveto
2752 1280 lineto
704 1280 lineto
733 811 978 565 conicto
1223 320 1660 320 conicto
1914 320 2152 384 conicto
2390 448 2624 576 conicto
2624 192 lineto
2388 67 2140 1 conicto
1893 -64 1639 -64 conicto
1001 -64 628 309 conicto
256 683 256 1320 conicto
256 1979 613 2365 conicto
970 2752 1576 2752 conicto
2120 2752 2436 2410 conicto
2752 2068 2752 1480 conicto
2304 1600 moveto
2299 1950 2099 2159 conicto
1900 2368 1572 2368 conicto
1200 2368 976 2166 conicto
753 1964 719 1597 conicto
2304 1600 lineto
end_ol grestore 
gsave 11.939533 9.045000 translate 0.035278 -0.035278 scale
start_ol
1984 2304 moveto
1912 2337 1828 2352 conicto
1744 2368 1642 2368 conicto
1282 2368 1089 2127 conicto
896 1887 896 1437 conicto
896 0 lineto
448 0 lineto
448 2688 lineto
896 2688 lineto
896 2304 lineto
1030 2531 1245 2641 conicto
1460 2752 1767 2752 conicto
1811 2752 1864 2752 conicto
1917 2752 1982 2752 conicto
1984 2304 lineto
end_ol grestore 
gsave 12.201785 9.045000 translate 0.035278 -0.035278 scale
start_ol
1542 -238 moveto
1360 -726 1187 -875 conicto
1015 -1024 726 -1024 conicto
384 -1024 lineto
384 -640 lineto
636 -640 lineto
813 -640 910 -555 conicto
1008 -470 1127 -155 conicto
1204 46 lineto
128 2688 lineto
603 2688 lineto
1418 586 lineto
2234 2688 lineto
2688 2688 lineto
1542 -238 lineto
end_ol grestore 
gsave 12.581429 9.045000 translate 0.035278 -0.035278 scale
start_ol
2688 1646 moveto
2688 0 lineto
2240 0 lineto
2240 1632 lineto
2240 2001 2093 2184 conicto
1947 2368 1654 2368 conicto
1302 2368 1099 2146 conicto
896 1925 896 1542 conicto
896 0 lineto
448 0 lineto
448 2688 lineto
896 2688 lineto
896 2304 lineto
1053 2529 1266 2640 conicto
1479 2752 1757 2752 conicto
2217 2752 2452 2471 conicto
2688 2191 2688 1646 conicto
end_ol grestore 
0.100000 slw
[] 0 sd
[] 0 sd
0 slc
n 3.860000 13.317000 m 7.626137 9.253393 l s
0 slj
n 7.809497 9.423331 m 7.966012 8.886672 l 7.442776 9.083455 l ef
0.100000 slw
[] 0 sd
0 slj
n 7.809497 9.423331 m 7.966012 8.886672 l 7.442776 9.083455 l cp s
0.100000 slw
[0.200000] 0 sd
[0.200000] 0 sd
0 slc
n 13.800000 8.850000 m 15.490088 8.880180 l s
0 slj
n 15.485624 9.130140 m 15.990008 8.889107 l 15.494551 8.630220 l ef
0.100000 slw
[] 0 sd
0 slj
n 15.485624 9.130140 m 15.990008 8.889107 l 15.494551 8.630220 l cp s
0.100000 slw
[] 0 sd
[] 0 sd
0 slc
0 slj
0.100000 slw
0 slc
0 slj
[] 0 sd
0.000000 0.800000 0.000000 srgb
n 16.550000 6.650000 m 20.550000 6.650000 l 20.550000 10.250000 l 19.750000 9.650000 19.350000 9.650000 18.550000 10.250000 c 17.750000 10.850000 17.350000 10.850000 16.550000 10.250000 c 16.550000 6.650000 l ef
0.000000 0.000000 0.000000 srgb
n 16.550000 6.650000 m 20.550000 6.650000 l 20.550000 10.250000 l 19.750000 9.650000 19.350000 9.650000 18.550000 10.250000 c 17.750000 10.850000 17.350000 10.850000 16.550000 10.250000 c 16.550000 6.650000 l s
0.100000 slw
[] 0 sd
[] 0 sd
0 slc
0 slj
0.100000 slw
0 slc
0 slj
[] 0 sd
0.000000 0.800000 0.000000 srgb
n 16.295000 6.870000 m 20.295000 6.870000 l 20.295000 10.470000 l 19.495000 9.870000 19.095000 9.870000 18.295000 10.470000 c 17.495000 11.070000 17.095000 11.070000 16.295000 10.470000 c 16.295000 6.870000 l ef
0.000000 0.000000 0.000000 srgb
n 16.295000 6.870000 m 20.295000 6.870000 l 20.295000 10.470000 l 19.495000 9.870000 19.095000 9.870000 18.295000 10.470000 c 17.495000 11.070000 17.095000 11.070000 16.295000 10.470000 c 16.295000 6.870000 l s
0.100000 slw
[] 0 sd
[] 0 sd
0 slc
0 slj
0.100000 slw
0 slc
0 slj
[] 0 sd
0.000000 0.800000 0.000000 srgb
n 16.040000 7.090000 m 20.040000 7.090000 l 20.040000 10.690000 l 19.240000 10.090000 18.840000 10.090000 18.040000 10.690000 c 17.240000 11.290000 16.840000 11.290000 16.040000 10.690000 c 16.040000 7.090000 l ef
0.000000 0.000000 0.000000 srgb
n 16.040000 7.090000 m 20.040000 7.090000 l 20.040000 10.690000 l 19.240000 10.090000 18.840000 10.090000 18.040000 10.690000 c 17.240000 11.290000 16.840000 11.290000 16.040000 10.690000 c 16.040000 7.090000 l s
gsave 16.523750 8.390000 translate 0.035278 -0.035278 scale
start_ol
448 3520 moveto
1202 3520 lineto
2079 1148 lineto
2961 3520 lineto
3712 3520 lineto
3712 0 lineto
3200 0 lineto
3200 3095 lineto
2314 704 lineto
1846 704 lineto
960 3095 lineto
960 0 lineto
448 0 lineto
448 3520 lineto
end_ol grestore 
gsave 17.075729 8.390000 translate 0.035278 -0.035278 scale
start_ol
2752 1480 moveto
2752 1280 lineto
704 1280 lineto
733 811 978 565 conicto
1223 320 1660 320 conicto
1914 320 2152 384 conicto
2390 448 2624 576 conicto
2624 192 lineto
2388 67 2140 1 conicto
1893 -64 1639 -64 conicto
1001 -64 628 309 conicto
256 683 256 1320 conicto
256 1979 613 2365 conicto
970 2752 1576 2752 conicto
2120 2752 2436 2410 conicto
2752 2068 2752 1480 conicto
2304 1600 moveto
2299 1950 2099 2159 conicto
1900 2368 1572 2368 conicto
1200 2368 976 2166 conicto
753 1964 719 1597 conicto
2304 1600 lineto
end_ol grestore 
gsave 17.470355 8.390000 translate 0.035278 -0.035278 scale
start_ol
896 3456 moveto
896 2688 lineto
1792 2688 lineto
1792 2368 lineto
896 2368 lineto
896 902 lineto
896 572 984 478 conicto
1073 384 1345 384 conicto
1792 384 lineto
1792 0 lineto
1345 0 lineto
836 0 642 194 conicto
448 389 448 902 conicto
448 2368 lineto
128 2368 lineto
128 2688 lineto
448 2688 lineto
448 3456 lineto
896 3456 lineto
end_ol grestore 
gsave 17.720121 8.390000 translate 0.035278 -0.035278 scale
start_ol
1622 1344 moveto
1104 1344 904 1225 conicto
704 1106 704 818 conicto
704 589 854 454 conicto
1004 320 1262 320 conicto
1618 320 1833 572 conicto
2048 825 2048 1244 conicto
2048 1344 lineto
1622 1344 lineto
2496 1513 moveto
2496 0 lineto
2048 0 lineto
2048 384 lineto
1900 154 1679 45 conicto
1458 -64 1138 -64 conicto
733 -64 494 162 conicto
256 389 256 769 conicto
256 1213 555 1438 conicto
854 1664 1448 1664 conicto
2048 1664 lineto
2048 1712 lineto
2048 2025 1851 2196 conicto
1655 2368 1300 2368 conicto
1074 2368 860 2320 conicto
646 2272 448 2176 conicto
448 2560 lineto
687 2656 912 2704 conicto
1138 2752 1351 2752 conicto
1927 2752 2211 2444 conicto
2496 2137 2496 1513 conicto
end_ol grestore 
gsave 18.112250 8.390000 translate 0.035278 -0.035278 scale
start_ol
2176 2304 moveto
2176 3712 lineto
2624 3712 lineto
2624 0 lineto
2176 0 lineto
2176 384 lineto
2040 157 1832 46 conicto
1624 -64 1332 -64 conicto
855 -64 555 324 conicto
256 712 256 1344 conicto
256 1976 555 2364 conicto
855 2752 1332 2752 conicto
1624 2752 1832 2641 conicto
2040 2531 2176 2304 conicto
704 1344 moveto
704 865 900 592 conicto
1096 320 1439 320 conicto
1782 320 1979 592 conicto
2176 865 2176 1344 conicto
2176 1823 1979 2095 conicto
1782 2368 1439 2368 conicto
1096 2368 900 2095 conicto
704 1823 704 1344 conicto
end_ol grestore 
gsave 18.519370 8.390000 translate 0.035278 -0.035278 scale
start_ol
1622 1344 moveto
1104 1344 904 1225 conicto
704 1106 704 818 conicto
704 589 854 454 conicto
1004 320 1262 320 conicto
1618 320 1833 572 conicto
2048 825 2048 1244 conicto
2048 1344 lineto
1622 1344 lineto
2496 1513 moveto
2496 0 lineto
2048 0 lineto
2048 384 lineto
1900 154 1679 45 conicto
1458 -64 1138 -64 conicto
733 -64 494 162 conicto
256 389 256 769 conicto
256 1213 555 1438 conicto
854 1664 1448 1664 conicto
2048 1664 lineto
2048 1712 lineto
2048 2025 1851 2196 conicto
1655 2368 1300 2368 conicto
1074 2368 860 2320 conicto
646 2272 448 2176 conicto
448 2560 lineto
687 2656 912 2704 conicto
1138 2752 1351 2752 conicto
1927 2752 2211 2444 conicto
2496 2137 2496 1513 conicto
end_ol grestore 
gsave 18.911499 8.390000 translate 0.035278 -0.035278 scale
start_ol
896 3456 moveto
896 2688 lineto
1792 2688 lineto
1792 2368 lineto
896 2368 lineto
896 902 lineto
896 572 984 478 conicto
1073 384 1345 384 conicto
1792 384 lineto
1792 0 lineto
1345 0 lineto
836 0 642 194 conicto
448 389 448 902 conicto
448 2368 lineto
128 2368 lineto
128 2688 lineto
448 2688 lineto
448 3456 lineto
896 3456 lineto
end_ol grestore 
gsave 19.161265 8.390000 translate 0.035278 -0.035278 scale
start_ol
1622 1344 moveto
1104 1344 904 1225 conicto
704 1106 704 818 conicto
704 589 854 454 conicto
1004 320 1262 320 conicto
1618 320 1833 572 conicto
2048 825 2048 1244 conicto
2048 1344 lineto
1622 1344 lineto
2496 1513 moveto
2496 0 lineto
2048 0 lineto
2048 384 lineto
1900 154 1679 45 conicto
1458 -64 1138 -64 conicto
733 -64 494 162 conicto
256 389 256 769 conicto
256 1213 555 1438 conicto
854 1664 1448 1664 conicto
2048 1664 lineto
2048 1712 lineto
2048 2025 1851 2196 conicto
1655 2368 1300 2368 conicto
1074 2368 860 2320 conicto
646 2272 448 2176 conicto
448 2560 lineto
687 2656 912 2704 conicto
1138 2752 1351 2752 conicto
1927 2752 2211 2444 conicto
2496 2137 2496 1513 conicto
end_ol grestore 
gsave 17.352500 9.190000 translate 0.035278 -0.035278 scale
start_ol
2240 3072 moveto
2240 1728 lineto
3584 1728 lineto
3584 1344 lineto
2240 1344 lineto
2240 0 lineto
1856 0 lineto
1856 1344 lineto
512 1344 lineto
512 1728 lineto
1856 1728 lineto
1856 3072 lineto
2240 3072 lineto
end_ol grestore 
gsave 17.889497 9.190000 translate 0.035278 -0.035278 scale
start_ol
end_ol grestore 
gsave 18.091804 9.190000 translate 0.035278 -0.035278 scale
start_ol
448 3520 moveto
960 3520 lineto
960 0 lineto
448 0 lineto
448 3520 lineto
end_ol grestore 
gsave 18.281626 9.190000 translate 0.035278 -0.035278 scale
start_ol
2140 1632 moveto
2295 1581 2442 1413 conicto
2590 1245 2738 952 conicto
3200 0 lineto
2709 0 lineto
2250 893 lineto
2077 1243 1915 1357 conicto
1753 1472 1473 1472 conicto
960 1472 lineto
960 0 lineto
448 0 lineto
448 3520 lineto
1552 3520 lineto
2157 3520 2454 3265 conicto
2752 3010 2752 2496 conicto
2752 2161 2595 1939 conicto
2439 1718 2140 1632 conicto
960 3136 moveto
960 1856 lineto
1552 1856 lineto
1893 1856 2066 2019 conicto
2240 2182 2240 2498 conicto
2240 2815 2066 2975 conicto
1893 3136 1552 3136 conicto
960 3136 lineto
end_ol grestore 
0.100000 slw
[1.000000 0.200000 0.200000 0.200000 0.200000 0.200000] 0 sd
[0.500000 0.100000 0.100000 0.100000 0.100000 0.100000] 0 sd
0 slc
n 16.050000 13.757400 m 20.555000 13.757400 l s
0.100000 slw
[0.500000 0.100000 0.100000 0.100000 0.100000 0.100000] 0 sd
[0.500000 0.100000 0.100000 0.100000 0.100000 0.100000] 0 sd
0 slc
n 16.000000 15.850000 m 20.505000 15.850000 l s
1.000000 0.752941 0.796078 srgb
n 23.250000 6.700000 m 23.250000 10.200000 l 28.597500 10.200000 l 28.597500 6.700000 l f
0.100000 slw
[] 0 sd
[] 0 sd
0 slj
0.000000 0.000000 0.000000 srgb
n 23.250000 6.700000 m 23.250000 10.200000 l 28.597500 10.200000 l 28.597500 6.700000 l cp s
gsave 25.103750 8.645000 translate 0.035278 -0.035278 scale
start_ol
-64 3520 moveto
3008 3520 lineto
3008 3136 lineto
1728 3136 lineto
1728 0 lineto
1216 0 lineto
1216 3136 lineto
-64 3136 lineto
-64 3520 lineto
end_ol grestore 
gsave 25.388483 8.645000 translate 0.035278 -0.035278 scale
start_ol
1622 1344 moveto
1104 1344 904 1225 conicto
704 1106 704 818 conicto
704 589 854 454 conicto
1004 320 1262 320 conicto
1618 320 1833 572 conicto
2048 825 2048 1244 conicto
2048 1344 lineto
1622 1344 lineto
2496 1513 moveto
2496 0 lineto
2048 0 lineto
2048 384 lineto
1900 154 1679 45 conicto
1458 -64 1138 -64 conicto
733 -64 494 162 conicto
256 389 256 769 conicto
256 1213 555 1438 conicto
854 1664 1448 1664 conicto
2048 1664 lineto
2048 1712 lineto
2048 2025 1851 2196 conicto
1655 2368 1300 2368 conicto
1074 2368 860 2320 conicto
646 2272 448 2176 conicto
448 2560 lineto
687 2656 912 2704 conicto
1138 2752 1351 2752 conicto
1927 2752 2211 2444 conicto
2496 2137 2496 1513 conicto
end_ol grestore 
gsave 25.780612 8.645000 translate 0.035278 -0.035278 scale
start_ol
448 3712 moveto
896 3712 lineto
896 0 lineto
448 0 lineto
448 3712 lineto
end_ol grestore 
gsave 25.957941 8.645000 translate 0.035278 -0.035278 scale
start_ol
1542 -238 moveto
1360 -726 1187 -875 conicto
1015 -1024 726 -1024 conicto
384 -1024 lineto
384 -640 lineto
636 -640 lineto
813 -640 910 -555 conicto
1008 -470 1127 -155 conicto
1204 46 lineto
128 2688 lineto
603 2688 lineto
1418 586 lineto
2234 2688 lineto
2688 2688 lineto
1542 -238 lineto
end_ol grestore 
gsave 26.337585 8.645000 translate 0.035278 -0.035278 scale
start_ol
2688 1646 moveto
2688 0 lineto
2240 0 lineto
2240 1632 lineto
2240 2001 2093 2184 conicto
1947 2368 1654 2368 conicto
1302 2368 1099 2146 conicto
896 1925 896 1542 conicto
896 0 lineto
448 0 lineto
448 2688 lineto
896 2688 lineto
896 2304 lineto
1053 2529 1266 2640 conicto
1479 2752 1757 2752 conicto
2217 2752 2452 2471 conicto
2688 2191 2688 1646 conicto
end_ol grestore 
0.100000 slw
[] 0 sd
[] 0 sd
0 slc
n 20.550000 8.450000 m 22.700000 8.450000 l s
0 slj
n 22.700000 8.700000 m 23.200000 8.450000 l 22.700000 8.200000 l ef
0.100000 slw
[] 0 sd
0 slj
n 22.700000 8.700000 m 23.200000 8.450000 l 22.700000 8.200000 l cp s
0.100000 slw
[0.200000] 0 sd
[0.200000] 0 sd
0 slc
n 25.923800 10.200000 m 21.068224 13.299202 l s
0 slj
n 20.933719 13.088469 m 20.646759 13.568213 l 21.202730 13.509935 l ef
0.100000 slw
[] 0 sd
0 slj
n 20.933719 13.088469 m 20.646759 13.568213 l 21.202730 13.509935 l cp s
0.100000 slw
[] 0 sd
[] 0 sd
0 slc
n 19.428700 12.777000 m 22.794002 10.507515 l s
0 slj
n 22.933781 10.714787 m 23.208546 10.227956 l 22.654222 10.300243 l ef
0.100000 slw
[] 0 sd
0 slj
n 22.933781 10.714787 m 23.208546 10.227956 l 22.654222 10.300243 l cp s
gsave 26.550000 4.250000 translate 0.035278 -0.035278 scale
start_ol
768 5952 moveto
2007 5952 lineto
3486 1908 lineto
4972 5952 lineto
6208 5952 lineto
6208 0 lineto
5376 0 lineto
5376 5228 lineto
3882 1152 lineto
3094 1152 lineto
1600 5228 lineto
1600 0 lineto
768 0 lineto
768 5952 lineto
end_ol grestore 
gsave 27.476629 4.250000 translate 0.035278 -0.035278 scale
start_ol
2498 3904 moveto
1905 3904 1560 3450 conicto
1216 2997 1216 2208 conicto
1216 1419 1558 965 conicto
1901 512 2498 512 conicto
3087 512 3431 967 conicto
3776 1423 3776 2208 conicto
3776 2989 3431 3446 conicto
3087 3904 2498 3904 conicto
2496 4544 moveto
3452 4544 3998 3924 conicto
4544 3304 4544 2208 conicto
4544 1115 3998 493 conicto
3452 -128 2496 -128 conicto
1536 -128 992 493 conicto
448 1115 448 2208 conicto
448 3304 992 3924 conicto
1536 4544 2496 4544 conicto
end_ol grestore 
gsave 28.133515 4.250000 translate 0.035278 -0.035278 scale
start_ol
2634 -367 moveto
2321 -1173 2024 -1418 conicto
1727 -1664 1230 -1664 conicto
640 -1664 lineto
640 -1024 lineto
1073 -1024 lineto
1378 -1024 1546 -888 conicto
1715 -753 1920 -248 conicto
2052 82 lineto
256 4416 lineto
1017 4416 lineto
2421 962 lineto
3826 4416 lineto
4608 4416 lineto
2634 -367 lineto
end_ol grestore 
gsave 28.767919 4.250000 translate 0.035278 -0.035278 scale
start_ol
2770 2240 moveto
1857 2240 1504 2039 conicto
1152 1838 1152 1352 conicto
1152 966 1416 739 conicto
1680 512 2135 512 conicto
2762 512 3141 938 conicto
3520 1365 3520 2073 conicto
3520 2240 lineto
2770 2240 lineto
4224 2544 moveto
4224 0 lineto
3520 0 lineto
3520 640 lineto
3266 246 2887 59 conicto
2508 -128 1960 -128 conicto
1266 -128 857 258 conicto
448 644 448 1292 conicto
448 2048 953 2432 conicto
1459 2816 2463 2816 conicto
3520 2816 lineto
3520 2882 lineto
3520 3370 3182 3637 conicto
2844 3904 2233 3904 conicto
1845 3904 1476 3808 conicto
1108 3712 768 3520 conicto
768 4224 lineto
1172 4384 1552 4464 conicto
1932 4544 2292 4544 conicto
3264 4544 3744 4048 conicto
4224 3552 4224 2544 conicto
end_ol grestore 
showpage
